{
  "project_info": {
    "project_number": "790894499005",
    "firebase_url": "https://presto-177310.firebaseio.com",
    "project_id": "presto-177310",
    "storage_bucket": "presto-177310.appspot.com"
  },
  "client": [
    {
      "client_info": {
        "mobilesdk_app_id": "1:790894499005:android:2aa92904441d2293",
        "android_client_info": {
          "package_name": "com.pcube.presto"
        }
      },
      "oauth_client": [
        {
          "client_id": "790894499005-u6t3dqsvt8o4s0gb8ddq387s8b62g1o2.apps.googleusercontent.com",
          "client_type": 3
        },
        {
          "client_id": "790894499005-t76tfi7fnpu67djj266tsibnln3i8fft.apps.googleusercontent.com",
          "client_type": 3
        }
      ],
      "api_key": [
        {
          "current_key": "AIzaSyA99GubF9fNtaTumnmDSbhg1pqpiYSzwZw"
        }
      ],
      "services": {
        "analytics_service": {
          "status": 1
        },
        "appinvite_service": {
          "status": 1,
          "other_platform_oauth_client": []
        },
        "ads_service": {
          "status": 2
        }
      }
    },
    {
      "client_info": {
        "mobilesdk_app_id": "1:790894499005:android:ff8d43572c32f106",
        "android_client_info": {
          "package_name": "com.shreecement.employee"
        }
      },
      "oauth_client": [
        {
          "client_id": "790894499005-u6t3dqsvt8o4s0gb8ddq387s8b62g1o2.apps.googleusercontent.com",
          "client_type": 3
        },
        {
          "client_id": "790894499005-t76tfi7fnpu67djj266tsibnln3i8fft.apps.googleusercontent.com",
          "client_type": 3
        }
      ],
      "api_key": [
        {
          "current_key": "AIzaSyA99GubF9fNtaTumnmDSbhg1pqpiYSzwZw"
        }
      ],
      "services": {
        "analytics_service": {
          "status": 1
        },
        "appinvite_service": {
          "status": 1,
          "other_platform_oauth_client": []
        },
        "ads_service": {
          "status": 2
        }
      }
    }
  ],
  "configuration_version": "1"
}